<?xml version="1.0" encoding="UTF-8"?>
<session version="1.0">
<refactoring comment="Rename type &apos;Balance_XXX&apos; to &apos;Balance_42829119&apos;&#x0D;&#x0A;- Original project: &apos;404_lab9&apos;&#x0D;&#x0A;- Original element: &apos;Balance_XXX&apos;&#x0D;&#x0A;- Renamed element: &apos;Balance_42829119&apos;&#x0D;&#x0A;- Update references to refactored element&#x0D;&#x0A;- Update textual occurrences in comments and strings" description="Rename type &apos;Balance_XXX&apos;" flags="589830" id="org.eclipse.jdt.ui.rename.type" input="/src&lt;{Balance_XXX.java[Balance_XXX" matchStrategy="1" name="Balance_42829119" qualified="false" references="true" similarDeclarations="false" stamp="1426869568280" textual="false" version="1.0"/>
</session>